%YAML 1.1
%TAG !u! tag:unity3d.com,2011:
--- !u!1 &1432239342808996556
GameObject:
  m_ObjectHideFlags: 0
  m_CorrespondingSourceObject: {fileID: 0}
  m_PrefabInstance: {fileID: 0}
  m_PrefabAsset: {fileID: 0}
  serializedVersion: 6
  m_Component:
  - component: {fileID: 1432239342808996553}
  - component: {fileID: 1432239342808996554}
  - component: {fileID: 1432239342808996555}
  m_Layer: 0
  m_Name: Enviro Directional Light
  m_TagString: Untagged
  m_Icon: {fileID: 0}
  m_NavMeshLayer: 0
  m_StaticEditorFlags: 0
  m_IsActive: 1
--- !u!4 &1432239342808996553
Transform:
  m_ObjectHideFlags: 0
  m_CorrespondingSourceObject: {fileID: 0}
  m_PrefabInstance: {fileID: 0}
  m_PrefabAsset: {fileID: 0}
  m_GameObject: {fileID: 1432239342808996556}
  m_LocalRotation: {x: 0.18395121, y: 0.5204973, z: -0.115955964, w: 0.825711}
  m_LocalPosition: {x: 0, y: 4.974, z: 0}
  m_LocalScale: {x: 1, y: 1, z: 1}
  m_Children: []
  m_Father: {fileID: 0}
  m_RootOrder: 0
  m_LocalEulerAnglesHint: {x: 66.982, y: -2.66, z: 0}
--- !u!108 &1432239342808996554
Light:
  m_ObjectHideFlags: 0
  m_CorrespondingSourceObject: {fileID: 0}
  m_PrefabInstance: {fileID: 0}
  m_PrefabAsset: {fileID: 0}
  m_GameObject: {fileID: 1432239342808996556}
  m_Enabled: 1
  serializedVersion: 9
  m_Type: 1
  m_Color: {r: 0.91764706, g: 0.79545975, b: 0.6665439, a: 1}
  m_Intensity: 1.4872115
  m_Range: 10
  m_SpotAngle: 30
  m_InnerSpotAngle: 21.80208
  m_CookieSize: 10
  m_Shadows:
    m_Type: 2
    m_Resolution: 1
    m_CustomResolution: -1
    m_Strength: 1
    m_Bias: 0.05
    m_NormalBias: 0.4
    m_NearPlane: 0.2
    m_CullingMatrixOverride:
      e00: 1
      e01: 0
      e02: 0
      e03: 0
      e10: 0
      e11: 1
      e12: 0
      e13: 0
      e20: 0
      e21: 0
      e22: 1
      e23: 0
      e30: 0
      e31: 0
      e32: 0
      e33: 1
    m_UseCullingMatrixOverride: 0
  m_Cookie: {fileID: 0}
  m_DrawHalo: 0
  m_Flare: {fileID: 0}
  m_RenderMode: 0
  m_CullingMask:
    serializedVersion: 2
    m_Bits: 4294967295
  m_RenderingLayerMask: 1
  m_Lightmapping: 2
  m_LightShadowCasterMode: 0
  m_AreaSize: {x: 1, y: 1}
  m_BounceIntensity: 1
  m_ColorTemperature: 6570
  m_UseColorTemperature: 0
  m_BoundingSphereOverride: {x: 0.015625006, y: -1.7014118e+38, z: 9.860761e-32, w: 0}
  m_UseBoundingSphereOverride: 0
  m_ShadowRadius: 0
  m_ShadowAngle: 0
--- !u!114 &1432239342808996555
MonoBehaviour:
  m_ObjectHideFlags: 0
  m_CorrespondingSourceObject: {fileID: 0}
  m_PrefabInstance: {fileID: 0}
  m_PrefabAsset: {fileID: 0}
  m_GameObject: {fileID: 1432239342808996556}
  m_Enabled: 1
  m_EditorHideFlags: 0
  m_Script: {fileID: 11500000, guid: 5c7457fc8c1b79f46b31cdd5ad46bfaf, type: 3}
  m_Name: 
  m_EditorClassIdentifier: 
  _material: {fileID: 0}
  volumeLightShader: {fileID: 4800000, guid: d9f3d22da4b08c84eb26827873f2a233, type: 3}
  volumeLightBlurShader: {fileID: 0}
  temp: {fileID: 0}
  SampleCount: 8
  scaleWithTime: 1
  ScatteringCoef: 0.5
  ExtinctionCoef: 0.01
  Anistropy: 0.1
  Noise: 0
  NoiseScale: 0.015
  NoiseIntensity: 1
  NoiseIntensityOffset: 0.3
  NoiseVelocity: {x: 3, y: 3}
