<?xml version="1.0" encoding="UTF-8" standalone="no"?>
<!-- Created with Inkscape (http://www.inkscape.org/) -->

<svg
   xmlns:dc="http://purl.org/dc/elements/1.1/"
   xmlns:cc="http://creativecommons.org/ns#"
   xmlns:rdf="http://www.w3.org/1999/02/22-rdf-syntax-ns#"
   xmlns:svg="http://www.w3.org/2000/svg"
   xmlns="http://www.w3.org/2000/svg"
   xmlns:sodipodi="http://sodipodi.sourceforge.net/DTD/sodipodi-0.dtd"
   xmlns:inkscape="http://www.inkscape.org/namespaces/inkscape"
   width="210mm"
   height="297mm"
   viewBox="0 0 210 297"
   version="1.1"
   id="svg3723"
   inkscape:version="0.92.2 (5c3e80d, 2017-08-06)"
   sodipodi:docname="o.svg">
  <defs
     id="defs3717" />
  <sodipodi:namedview
     id="base"
     pagecolor="#ffffff"
     bordercolor="#666666"
     borderopacity="1.0"
     inkscape:pageopacity="0.0"
     inkscape:pageshadow="2"
     inkscape:zoom="1.4"
     inkscape:cx="121.95414"
     inkscape:cy="673.74976"
     inkscape:document-units="mm"
     inkscape:current-layer="layer1"
     showgrid="false"
     inkscape:window-width="1183"
     inkscape:window-height="745"
     inkscape:window-x="-8"
     inkscape:window-y="-8"
     inkscape:window-maximized="1" />
  <metadata
     id="metadata3720">
    <rdf:RDF>
      <cc:Work
         rdf:about="">
        <dc:format>image/svg+xml</dc:format>
        <dc:type
           rdf:resource="http://purl.org/dc/dcmitype/StillImage" />
        <dc:title></dc:title>
      </cc:Work>
    </rdf:RDF>
  </metadata>
  <g
     inkscape:label="Ebene 1"
     inkscape:groupmode="layer"
     id="layer1">
    <rect
       style="fill:#e37266;fill-opacity:1;stroke:#db4737;stroke-width:0.2;stroke-linecap:round;stroke-linejoin:round;stroke-miterlimit:4;stroke-dasharray:none;stroke-opacity:1"
       id="rect4559"
       width="6.4145832"
       height="65.945831"
       x="-0.064583309"
       y="0"
       rx="0.33072916"
       ry="0.33072916" />
    <rect
       style="fill:#e37266;fill-opacity:1;stroke:#db4737;stroke-width:0.2;stroke-linecap:round;stroke-linejoin:round;stroke-miterlimit:4;stroke-dasharray:none;stroke-opacity:1"
       id="rect4559-3"
       width="6.6145835"
       height="66.145836"
       x="66.145836"
       y="-72.760422"
       rx="0.33072916"
       ry="0.33072916"
       transform="rotate(90)" />
    <rect
       style="fill:#e37266;fill-opacity:1;stroke:#db4737;stroke-width:0.2;stroke-linecap:round;stroke-linejoin:round;stroke-miterlimit:4;stroke-dasharray:none;stroke-opacity:1"
       id="rect4559-3-5"
       width="6.6145835"
       height="66.145836"
       x="66.145836"
       y="-138.90625"
       rx="0.33072916"
       ry="0.33072916"
       transform="rotate(90)" />
    <rect
       style="fill:#e37266;fill-opacity:1;stroke:#db4737;stroke-width:0.2;stroke-linecap:round;stroke-linejoin:round;stroke-miterlimit:4;stroke-dasharray:none;stroke-opacity:1"
       id="rect4559-6"
       width="6.6145835"
       height="66.145836"
       x="138.90625"
       y="0"
       rx="0.33072916"
       ry="0.33072916" />
    <path
       d="M -0.2645801,0 V 296.99999 M 6.3499999,0 V 296.99999 M 12.96459,0 V 296.99999 M 19.57917,0 V 296.99999 M 26.19375,0 V 296.99999 M 32.80834,0 V 296.99999 M 39.42292,0 V 296.99999 M 46.0375,0 V 296.99999 M 52.65209,0 V 296.99999 M 59.26667,0 V 296.99999 M 65.88125,0 V 296.99999 M 72.49584,0 V 296.99999 M 79.11042,0 V 296.99999 M 85.725,0 V 296.99999 M 92.33959,0 V 296.99999 M 98.95417,0 V 296.99999 M 105.56875,0 V 296.99999 M 112.18333,0 V 296.99999 M 118.79792,0 V 296.99999 M 125.4125,0 V 296.99999 M 132.02708,0 V 296.99999 M 138.64167,0 V 296.99999 M 145.25625,0 V 296.99999 M 151.87083,0 V 296.99999 M 158.48542,0 V 296.99999 M 165.1,0 V 296.99999 M 171.71458,0 V 296.99999 M 178.32917,0 V 296.99999 M 184.94375,0 V 296.99999 M 191.55833,0 V 296.99999 M 198.17292,0 V 296.99999 M 204.7875,0 V 296.99999 M -0.2645801,0 H 209.73542 M -0.2645801,6.614583 H 209.73542 M -0.2645801,13.229166 H 209.73542 M -0.2645801,19.84375 H 209.73542 M -0.2645801,26.458333 H 209.73542 M -0.2645801,33.072916 H 209.73542 M -0.2645801,39.687499 H 209.73542 M -0.2645801,46.302082 H 209.73542 M -0.2645801,52.916665 H 209.73542 M -0.2645801,59.531249 H 209.73542 M -0.2645801,66.145836 H 209.73542 M -0.2645801,72.760416 H 209.73542 M -0.2645801,79.374996 H 209.73542 M -0.2645801,85.989576 H 209.73542 M -0.2645801,92.604166 H 209.73542 M -0.2645801,99.218746 H 209.73542 M -0.2645801,105.83333 H 209.73542 M -0.2645801,112.44791 H 209.73542 M -0.2645801,119.0625 H 209.73542 M -0.2645801,125.67708 H 209.73542 M -0.2645801,132.29166 H 209.73542 M -0.2645801,138.90625 H 209.73542 M -0.2645801,145.52083 H 209.73542 M -0.2645801,152.13541 H 209.73542 M -0.2645801,158.75 H 209.73542 M -0.2645801,165.36458 H 209.73542 M -0.2645801,171.97916 H 209.73542 M -0.2645801,178.59375 H 209.73542 M -0.2645801,185.20833 H 209.73542 M -0.2645801,191.82291 H 209.73542 M -0.2645801,198.4375 H 209.73542 M -0.2645801,205.05208 H 209.73542 M -0.2645801,211.66666 H 209.73542 M -0.2645801,218.28124 H 209.73542 M -0.2645801,224.89583 H 209.73542 M -0.2645801,231.51041 H 209.73542 M -0.2645801,238.12499 H 209.73542 M -0.2645801,244.73958 H 209.73542 M -0.2645801,251.35416 H 209.73542 M -0.2645801,257.96874 H 209.73542 M -0.2645801,264.58333 H 209.73542 M -0.2645801,271.19791 H 209.73542 M -0.2645801,277.81249 H 209.73542 M -0.2645801,284.42708 H 209.73542 M -0.2645801,291.04166 H 209.73542"
       style="fill:#0000ff;stroke:#000000;stroke-width:0.26458299px"
       id="path4950"
       inkscape:connector-curvature="0" />
    <rect
       style="fill:#0000ff;fill-opacity:1;stroke:#0000ff;stroke-width:0.19999999;stroke-linecap:round;stroke-linejoin:round;stroke-miterlimit:4;stroke-dasharray:none;stroke-opacity:1"
       id="rect4636-6-1"
       width="6.4145832"
       height="6.4145837"
       x="71.761292"
       y="-17.292421"
       rx="0.33072916"
       ry="0.33072919"
       inkscape:transform-center-x="1.2127172"
       inkscape:transform-center-y="-5.1203617" />
    <rect
       style="fill:#e37266;fill-opacity:1;stroke:#db4737;stroke-width:0.2;stroke-linecap:round;stroke-linejoin:round;stroke-miterlimit:4;stroke-dasharray:none;stroke-opacity:1"
       id="rect4559-8"
       width="6.4145832"
       height="65.945831"
       x="0.20000267"
       y="72.760422"
       rx="0.33072916"
       ry="0.33072916" />
    <rect
       style="fill:#e37266;fill-opacity:1;stroke:#db4737;stroke-width:0.2;stroke-linecap:round;stroke-linejoin:round;stroke-miterlimit:4;stroke-dasharray:none;stroke-opacity:1"
       id="rect4559-3-7"
       width="6.6145835"
       height="66.145836"
       x="138.90625"
       y="-73.025009"
       rx="0.33072916"
       ry="0.33072916"
       transform="rotate(90)" />
    <rect
       style="fill:#e37266;fill-opacity:1;stroke:#db4737;stroke-width:0.2;stroke-linecap:round;stroke-linejoin:round;stroke-miterlimit:4;stroke-dasharray:none;stroke-opacity:1"
       id="rect4559-3-5-8"
       width="6.6145835"
       height="66.145836"
       x="138.90625"
       y="-139.17085"
       rx="0.33072916"
       ry="0.33072916"
       transform="rotate(90)" />
    <rect
       style="fill:#e37266;fill-opacity:1;stroke:#db4737;stroke-width:0.2;stroke-linecap:round;stroke-linejoin:round;stroke-miterlimit:4;stroke-dasharray:none;stroke-opacity:1"
       id="rect4559-6-8"
       width="6.6145835"
       height="66.145836"
       x="138.90625"
       y="72.760422"
       rx="0.33072916"
       ry="0.33072916" />
    <text
       xml:space="preserve"
       style="font-style:normal;font-weight:normal;font-size:4.23333311px;line-height:125%;font-family:Sans;letter-spacing:0px;word-spacing:0px;fill:#000000;fill-opacity:1;stroke:none;stroke-width:0.26458332px;stroke-linecap:butt;stroke-linejoin:miter;stroke-opacity:1"
       x="47.804211"
       y="103.86664"
       id="text5425"><tspan
         sodipodi:role="line"
         id="tspan5423"
         x="47.804211"
         y="103.86664"
         style="stroke-width:0.26458332px">P</tspan></text>
    <text
       xml:space="preserve"
       style="font-style:normal;font-weight:normal;font-size:4.23333311px;line-height:125%;font-family:Sans;letter-spacing:0px;word-spacing:0px;fill:#000000;fill-opacity:1;stroke:none;stroke-width:0.26458332px;stroke-linecap:butt;stroke-linejoin:miter;stroke-opacity:1"
       x="17.197855"
       y="17.108633"
       id="text57"><tspan
         sodipodi:role="line"
         id="tspan55"
         x="17.197855"
         y="17.108633"
         style="stroke-width:0.26458332px">0,5</tspan></text>
    <text
       xml:space="preserve"
       style="font-style:normal;font-weight:normal;font-size:4.23333311px;line-height:125%;font-family:Sans;letter-spacing:0px;word-spacing:0px;fill:#000000;fill-opacity:1;stroke:none;stroke-width:0.26458332px;stroke-linecap:butt;stroke-linejoin:miter;stroke-opacity:1"
       x="25.970301"
       y="8.22826"
       id="text57-8"><tspan
         sodipodi:role="line"
         id="tspan55-9"
         x="25.970301"
         y="8.22826"
         style="stroke-width:0.26458332px">0,5</tspan></text>
    <path
       style="fill:none;fill-rule:evenodd;stroke:#000000;stroke-width:0.26458332px;stroke-linecap:butt;stroke-linejoin:miter;stroke-opacity:1"
       d="m 26.004704,13.040181 c -8.99e-4,-0.290629 -0.0018,-0.581259 -0.0027,-0.871889 0.02227,0 0.05107,0.01575 0.06682,0 0.0315,-0.0315 -0.0315,-0.102136 0,-0.133634 0.01575,-0.01575 0.05107,0.01575 0.06682,0 0.0315,-0.0315 -0.0315,-0.102137 0,-0.133635 0.01575,-0.01575 0.05107,0.01575 0.06682,0 0.01575,-0.01575 -0.01575,-0.05107 0,-0.06682 0.01575,-0.01575 0.05107,0.01575 0.06682,0 0.01575,-0.01575 -0.01575,-0.05107 0,-0.06682 0.01575,-0.01575 0.05107,0.01575 0.06682,0 0.01575,-0.01575 -0.01575,-0.05107 0,-0.06682 0.01575,-0.01575 0.05107,0.01575 0.06682,0 0.01575,-0.01575 -0.01575,-0.05107 0,-0.06682 0.01575,-0.01575 0.05107,0.01575 0.06682,0 0.01575,-0.01575 -0.01575,-0.05107 0,-0.06682 0.0315,-0.0315 0.102136,0.0315 0.133635,0 0.01575,-0.01575 -0.01575,-0.05107 0,-0.06682 0.0315,-0.0315 0.09379,0.01992 0.133634,0 0.02817,-0.01409 0.03864,-0.05273 0.06682,-0.06682 0.01992,-0.01 0.04454,0 0.06682,0 0.133635,0 0.26727,0 0.400905,0 0.02227,0 0.05107,-0.01575 0.06682,0 0.01575,0.01575 -0.01575,0.05107 0,0.06682 0.0315,0.0315 0.102136,-0.0315 0.133635,0 0.01575,0.01575 -0.01575,0.05107 0,0.06682 0.01575,0.01575 0.04454,0 0.06682,0 0.02227,0 0.04454,0 0.06682,0 0.17818,0 0.356359,0 0.534539,0 0.0315,0 0.331059,0.003 0.334087,0 0.01575,-0.01575 -0.01575,-0.05107 0,-0.06682 0.0315,-0.0315 0.102137,0.0315 0.133635,0 0.01575,-0.01575 -0.01575,-0.05107 0,-0.06682 0.01575,-0.01575 0.05107,0.01575 0.06682,0 0.01575,-0.01575 -0.01575,-0.05107 0,-0.06682 0.01575,-0.01575 0.05107,0.01575 0.06682,0 0.01575,-0.01575 -0.01575,-0.05107 0,-0.06682 0.01575,-0.01575 0.05107,0.01575 0.06682,0 0.0315,-0.0315 -0.0315,-0.102137 0,-0.133635 0.01575,-0.01575 0.05107,0.01575 0.06682,0 0,-0.17818 -0.02227,0.02227 0.06682,-0.06682 0.0315,-0.0315 -0.0315,-0.102137 0,-0.133635 0.01575,-0.01575 0.05107,0.01575 0.06682,0 0.0315,-0.0315 -0.0315,-0.102136 0,-0.133635 0.01575,-0.01575 0.05107,0.01575 0.06682,0 0.0315,-0.0315 -0.0315,-0.102136 0,-0.133634 0.01575,-0.01575 0.05107,0.01575 0.06682,0 0.01575,-0.01575 0,-0.04454 0,-0.06682 0,-0.02227 0,-0.04454 0,-0.06682 0,-0.02227 0,-0.08909 0,-0.06682 0,0.08909 0,0.178179 0,0.267269 0,0.02227 -0.01575,0.05107 0,0.06682 0.01575,0.01575 0.05107,-0.01575 0.06682,0 0.01575,0.01575 -0.01575,0.05107 0,0.06682 0.0315,0.0315 0.102137,-0.0315 0.133634,0 0.01575,0.01575 -0.01575,0.05107 0,0.06682 0.01575,0.01575 0.05107,-0.01575 0.06682,0 0.01575,0.01575 -0.01575,0.05107 0,0.06682 0.03341,0.03341 0.167043,-0.03341 0.200452,0 0.01575,0.01575 -0.01575,0.05107 0,0.06682 0.02069,0.02069 0.313397,-0.02069 0.334087,0 0.01575,0.01575 -0.01575,0.05107 0,0.06682 0.01575,0.01575 0.04455,0 0.06682,0 0.133635,0 0.267269,0 0.400904,0 0.02227,0 0.05107,-0.01575 0.06682,0 0.01575,0.01575 -0.01575,0.05107 0,0.06682 0.01575,0.01575 0.04454,0 0.06682,0 0.133635,0 0.267269,0 0.400904,0 0.17818,0 0.35636,0 0.534539,0 0.02227,0 0.04455,0 0.06682,0 0.02227,0 0.05107,-0.01575 0.06682,0 0.01575,0.01575 -0.01575,0.05107 0,0.06682 0.01575,0.01575 0.04454,0 0.06682,0 0.02227,0 0.04454,0 0.06682,0 0.01621,0 0.198304,-0.0021 0.200452,0 0.01575,0.01575 -0.01575,0.05107 0,0.06682 0.0315,0.0315 0.102137,-0.0315 0.133635,0 0.01575,0.01575 -0.01575,0.05107 0,0.06682 0.01575,0.01575 0.05107,-0.01575 0.06682,0 0.01575,0.01575 -0.01575,0.05107 0,0.06682 0.01575,0.01575 0.05107,-0.01575 0.06682,0 0.01575,0.01575 -0.01575,0.05107 0,0.06682 0.01575,0.01575 0.05107,-0.01575 0.06682,0 0.03341,0.03341 -0.03341,0.167043 0,0.200452 0.01575,0.01575 0.05107,-0.01575 0.06682,0 0.03341,0.03341 -0.03341,0.167044 0,0.200452 0.01575,0.01575 0.05107,-0.01575 0.06682,0 0.0027,0.0027 0,0.242732 0,0.26727 0,0.155907 0,0.311814 0,0.467722 0,0.02227 0.01575,0.05107 0,0.06682 -0.01575,0.01575 -0.05107,-0.01575 -0.06682,0 -0.01575,0.01575 0,0.04454 0,0.06682 0,0.02227 -0.01777,0.05339 0,0.06682 0.08043,0.06076 0.179753,0.09126 0.269625,0.136898"
       id="path93"
       inkscape:connector-curvature="0" />
    <path
       style="fill:none;fill-rule:evenodd;stroke:#000000;stroke-width:0.26458332px;stroke-linecap:butt;stroke-linejoin:miter;stroke-opacity:1"
       d="m 26.004704,19.654764 c -0.264411,-0.130949 -0.324168,-0.13656 -0.537228,-0.13656 -0.02227,0 -0.05107,0.01575 -0.06682,0 -0.01575,-0.01575 0.01575,-0.05107 0,-0.06682 -0.0315,-0.0315 -0.102136,0.0315 -0.133635,0 -0.01575,-0.01575 0.01575,-0.05107 0,-0.06682 -0.01575,-0.01575 -0.0469,0.01 -0.06682,0 -0.02817,-0.01409 -0.03864,-0.05273 -0.06682,-0.06682 -0.01992,-0.01 -0.05107,0.01575 -0.06682,0 -0.01575,-0.01575 0.01575,-0.05107 0,-0.06682 -0.01575,-0.01575 -0.05107,0.01575 -0.06682,0 -0.01575,-0.01575 0.01,-0.0469 0,-0.06682 -0.01409,-0.02817 -0.05273,-0.03864 -0.06682,-0.06682 -0.01992,-0.03984 0.0315,-0.102136 0,-0.133634 -0.01575,-0.01575 -0.05107,0.01575 -0.06682,0 -0.01575,-0.01575 0,-0.04455 0,-0.06682 0,-0.133635 0,-0.267269 0,-0.400904 0,-0.155907 0,-0.311815 0,-0.467722 0,-0.03009 -0.01017,-0.180117 0,-0.200452 0.01409,-0.02817 0.05273,-0.03865 0.06682,-0.06682 0.01812,-0.03625 -0.01828,-0.248987 0,-0.26727 0.01575,-0.01575 0.05107,0.01575 0.06682,0 0.03341,-0.03341 -0.03341,-0.167043 0,-0.200452 0.01575,-0.01575 0.05107,0.01575 0.06682,0 0.03341,-0.03341 -0.03341,-0.167043 0,-0.200452 0.01575,-0.01575 0.05107,0.01575 0.06682,0 0.03341,-0.03341 -0.03341,-0.167044 0,-0.200452 0.01575,-0.01575 0.05107,0.01575 0.06682,0 0.0315,-0.0315 -0.0315,-0.102137 0,-0.133635 0.01575,-0.01575 0.05107,0.01575 0.06682,0 0.0315,-0.0315 -0.0315,-0.102137 0,-0.133635 0.01575,-0.01575 0.05107,0.01575 0.06682,0 0.01575,-0.01575 -0.01,-0.0469 0,-0.06682 0.01409,-0.02817 0.05273,-0.03865 0.06682,-0.06682 0.01992,-0.03984 -0.0315,-0.102137 0,-0.133635 0.01575,-0.01575 0.05107,0.01575 0.06682,0 0.0315,-0.0315 -0.01992,-0.09379 0,-0.133634 0.01409,-0.02817 0.05273,-0.03864 0.06682,-0.06682 0.02308,-0.04615 -0.02346,-0.310633 0,-0.334087 0.01575,-0.01575 0.05107,0.01575 0.06682,0 0.01575,-0.01575 0,-0.04455 0,-0.06682 0,-0.01621 0.0021,-0.198304 0,-0.200453 -0.01575,-0.01575 -0.05107,0.01575 -0.06682,0 -0.01575,-0.01575 0.01575,-0.05107 0,-0.06682 -0.01575,-0.01575 -0.05107,0.01575 -0.06682,0 -0.01575,-0.01575 0.01575,-0.05107 0,-0.06682 -0.01575,-0.01575 -0.05107,0.01575 -0.06682,0 -0.01575,-0.01575 0.01575,-0.05107 0,-0.06682 -0.0315,-0.0315 -0.102136,0.0315 -0.133634,0 -0.01575,-0.01575 0.01575,-0.05107 0,-0.06682 -0.03341,-0.03341 -0.167044,0.03341 -0.200453,0 -0.01575,-0.01575 0.01575,-0.05107 0,-0.06682 -0.0027,-0.0027 -0.242731,0 -0.267269,0 -0.02227,0 -0.04455,0 -0.06682,0 -0.02227,0 -0.05107,0.01575 -0.06682,0 -0.01575,-0.01575 0.01575,-0.05107 0,-0.06682 -0.0315,-0.0315 -0.133635,0.04454 -0.133635,0 0,-0.02227 0.04454,0 0.06682,0 0.02227,0 0.04454,0 0.06682,0 0.17818,0 -0.02227,0.02227 0.06682,-0.06682 0.01575,-0.01575 0.05107,0.01575 0.06682,0 0.0315,-0.0315 -0.0315,-0.102137 0,-0.133635 0.01575,-0.01575 0.05107,0.01575 0.06682,0 0.01575,-0.01575 0,-0.04454 0,-0.06682 0,-0.02227 0,-0.04454 0,-0.06682 0,-0.02227 0,-0.04454 0,-0.06682 0,-0.02227 -0.01575,-0.05107 0,-0.06682 0.01575,-0.01575 0.05107,0.01575 0.06682,0 0.03341,-0.03341 -0.03341,-0.167044 0,-0.200452 0.01575,-0.01575 0.05107,0.01575 0.06682,0 0.01608,-0.01608 -0.01608,-0.251192 0,-0.26727 0.01575,-0.01575 0.05107,0.01575 0.06682,0 0.0021,-0.0021 0,-0.184247 0,-0.200452 0,-0.17818 -0.02227,0.02227 0.06682,-0.06682 0.03341,-0.03341 -0.03341,-0.167044 0,-0.200452 0.01575,-0.01575 0.05107,0.01575 0.06682,0 0.0315,-0.0315 -0.0315,-0.102137 0,-0.133635 0.01575,-0.01575 0.05107,0.01575 0.06682,0 0,-0.17818 -0.02227,0.02227 0.06682,-0.06682 0.01575,-0.01575 -0.01575,-0.05107 0,-0.06682 0.0315,-0.0315 0.102137,0.0315 0.133635,0 0.01575,-0.01575 -0.01575,-0.05107 0,-0.06682 0.01575,-0.01575 0.05107,0.01575 0.06682,0 0.01575,-0.01575 -0.01575,-0.05107 0,-0.06682 0.01575,-0.01575 0.05107,0.01575 0.06682,0 0.01575,-0.01575 -0.01575,-0.05107 0,-0.06682 0.0315,-0.0315 0.102136,0.0315 0.133634,0 0.01575,-0.01575 -0.01575,-0.05107 0,-0.06682 0.0315,-0.0315 0.102137,0.0315 0.133635,0 0.08909,-0.08909 -0.111362,-0.06682 0.06682,-0.06682 0.02227,0 0.04454,0 0.06682,0 0.02227,0 0.06636,0.02227 0.06682,0 10e-4,-0.04843 -0.04275,-0.08692 -0.06412,-0.130379"
       id="path95"
       inkscape:connector-curvature="0" />
    <rect
       style="fill:#0000ff;fill-opacity:1;stroke:#0000ff;stroke-width:0.19999999;stroke-linecap:round;stroke-linejoin:round;stroke-miterlimit:4;stroke-dasharray:none;stroke-opacity:1"
       id="rect4636-6-1-7"
       width="6.4145832"
       height="6.4145842"
       x="66.015518"
       y="19.841442"
       rx="0.33072916"
       ry="0.33072919"
       inkscape:transform-center-x="1.2127172"
       inkscape:transform-center-y="-5.1203617" />
    <rect
       style="fill:#0000ff;fill-opacity:1;stroke:#0000ff;stroke-width:0.19999999;stroke-linecap:round;stroke-linejoin:round;stroke-miterlimit:4;stroke-dasharray:none;stroke-opacity:1"
       id="rect4636-6-1-0"
       width="6.4145832"
       height="6.4145842"
       x="72.430099"
       y="19.841442"
       rx="0.33072916"
       ry="0.33072919"
       inkscape:transform-center-x="1.2127172"
       inkscape:transform-center-y="-5.1203617" />
    <rect
       style="fill:#0000ff;fill-opacity:1;stroke:#0000ff;stroke-width:0.19999999;stroke-linecap:round;stroke-linejoin:round;stroke-miterlimit:4;stroke-dasharray:none;stroke-opacity:1"
       id="rect4636-6-1-4"
       width="6.4145832"
       height="6.4145842"
       x="78.844681"
       y="19.841444"
       rx="0.33072916"
       ry="0.33072919"
       inkscape:transform-center-x="1.2127172"
       inkscape:transform-center-y="-5.1203617" />
    <rect
       style="fill:#0000ff;fill-opacity:1;stroke:#0000ff;stroke-width:0.19999999;stroke-linecap:round;stroke-linejoin:round;stroke-miterlimit:4;stroke-dasharray:none;stroke-opacity:1"
       id="rect4636-6-1-5"
       width="6.4145832"
       height="6.4145842"
       x="78.844681"
       y="26.256027"
       rx="0.33072916"
       ry="0.33072919"
       inkscape:transform-center-x="1.2127172"
       inkscape:transform-center-y="-5.1203617" />
    <rect
       style="fill:#0000ff;fill-opacity:1;stroke:#0000ff;stroke-width:0.19999999;stroke-linecap:round;stroke-linejoin:round;stroke-miterlimit:4;stroke-dasharray:none;stroke-opacity:1"
       id="rect4636-6-1-2"
       width="6.4145832"
       height="6.4145842"
       x="66.015518"
       y="26.256027"
       rx="0.33072916"
       ry="0.33072919"
       inkscape:transform-center-x="1.2127172"
       inkscape:transform-center-y="-5.1203617" />
    <rect
       style="fill:#0000ff;fill-opacity:1;stroke:#0000ff;stroke-width:0.19999999;stroke-linecap:round;stroke-linejoin:round;stroke-miterlimit:4;stroke-dasharray:none;stroke-opacity:1"
       id="rect4636-6-1-6"
       width="6.4145832"
       height="6.4145842"
       x="66.015518"
       y="32.670612"
       rx="0.33072916"
       ry="0.33072919"
       inkscape:transform-center-x="1.2127172"
       inkscape:transform-center-y="-5.1203617" />
    <rect
       style="fill:#0000ff;fill-opacity:1;stroke:#0000ff;stroke-width:0.19999999;stroke-linecap:round;stroke-linejoin:round;stroke-miterlimit:4;stroke-dasharray:none;stroke-opacity:1"
       id="rect4636-6-1-60"
       width="6.4145832"
       height="6.4145842"
       x="78.844681"
       y="32.670612"
       rx="0.33072916"
       ry="0.33072919"
       inkscape:transform-center-x="1.2127172"
       inkscape:transform-center-y="-5.1203617" />
    <rect
       style="fill:#0000ff;fill-opacity:1;stroke:#0000ff;stroke-width:0.19999999;stroke-linecap:round;stroke-linejoin:round;stroke-miterlimit:4;stroke-dasharray:none;stroke-opacity:1"
       id="rect4636-6-1-59"
       width="6.4145832"
       height="6.4145842"
       x="72.162712"
       y="33.204918"
       rx="0.33072916"
       ry="0.33072919"
       inkscape:transform-center-x="1.2127172"
       inkscape:transform-center-y="-5.1203617" />
    <rect
       style="fill:#ff0000;fill-opacity:1;stroke:#ff0000;stroke-width:0.19999999;stroke-linecap:round;stroke-linejoin:round;stroke-miterlimit:4;stroke-dasharray:none;stroke-opacity:1"
       id="rect4636-6-1-45"
       width="6.4145832"
       height="6.4145842"
       x="44.099415"
       y="-12.49817"
       rx="0.33072916"
       ry="0.33072919"
       inkscape:transform-center-x="1.2127172"
       inkscape:transform-center-y="-5.1203617" />
    <rect
       style="fill:#ff0000;fill-opacity:1;stroke:#ff0000;stroke-width:0.19999999;stroke-linecap:round;stroke-linejoin:round;stroke-miterlimit:4;stroke-dasharray:none;stroke-opacity:1"
       id="rect4636-6-1-45-3"
       width="6.4145832"
       height="6.4145846"
       x="72.429985"
       y="99.22049"
       rx="0.33072916"
       ry="0.33072919"
       inkscape:transform-center-x="1.2127172"
       inkscape:transform-center-y="-5.1203617" />
    <rect
       style="fill:#ff0000;fill-opacity:1;stroke:#ff0000;stroke-width:0.19999999;stroke-linecap:round;stroke-linejoin:round;stroke-miterlimit:4;stroke-dasharray:none;stroke-opacity:1"
       id="rect4636-6-1-45-30"
       width="19.441612"
       height="6.4145846"
       x="59.200146"
       y="85.857018"
       rx="0.33072916"
       ry="0.33072919"
       inkscape:transform-center-x="3.6755556"
       inkscape:transform-center-y="-5.1203617" />
    <rect
       style="fill:#ff0000;fill-opacity:1;stroke:#ff0000;stroke-width:0.19999999;stroke-linecap:round;stroke-linejoin:round;stroke-miterlimit:4;stroke-dasharray:none;stroke-opacity:1"
       id="rect4636-6-1-45-30-7"
       width="25.989716"
       height="6.4145851"
       x="52.753445"
       y="112.58397"
       rx="0.33072916"
       ry="0.33072919"
       inkscape:transform-center-x="4.9135165"
       inkscape:transform-center-y="-5.1203617" />
    <rect
       style="fill:#ff0000;fill-opacity:1;stroke:#ff0000;stroke-width:0.19999999;stroke-linecap:round;stroke-linejoin:round;stroke-miterlimit:4;stroke-dasharray:none;stroke-opacity:1"
       id="rect4636-6-1-45-3-2"
       width="6.4145832"
       height="52.716667"
       x="92.207932"
       y="78.843559"
       rx="0.33072916"
       ry="0.33072919"
       inkscape:transform-center-x="1.2127173"
       inkscape:transform-center-y="-42.080411" />
    <rect
       style="fill:#ff0000;fill-opacity:1;stroke:#ff0000;stroke-width:0.19999999;stroke-linecap:round;stroke-linejoin:round;stroke-miterlimit:4;stroke-dasharray:none;stroke-opacity:1"
       id="rect4636-6-1-45-3-2-8"
       width="6.4145832"
       height="52.716667"
       x="32.606823"
       y="77.673065"
       rx="0.33072916"
       ry="0.33072919"
       inkscape:transform-center-x="1.2127173"
       inkscape:transform-center-y="-42.080411" />
    <path
       style="fill:#0000ff;fill-rule:evenodd;stroke:#000000;stroke-width:0.26458332px;stroke-linecap:butt;stroke-linejoin:miter;stroke-opacity:1"
       d="m 52.753385,106.03569 6.414589,6.41459 h 6.41458 l -6.41458,-6.41459 z"
       id="path189"
       inkscape:connector-curvature="0" />
    <path
       style="fill:#0000ff;fill-rule:evenodd;stroke:#000000;stroke-width:0.26458332px;stroke-linecap:butt;stroke-linejoin:miter;stroke-opacity:1"
       d="m 46.338745,106.03552 6.4147,6.54845 h -6.41458 l -6.68197,6.94889 v -13.63098 z"
       id="path191"
       inkscape:connector-curvature="0"
       sodipodi:nodetypes="cccccc" />
    <path
       style="fill:#0000ff;fill-rule:evenodd;stroke:#000000;stroke-width:0.26458332px;stroke-linecap:butt;stroke-linejoin:miter;stroke-opacity:1"
       d="m 46.371096,92.2716 6.41458,-6.414584 -12.829162,-10e-7 z"
       id="path195"
       inkscape:connector-curvature="0" />
    <path
       style="fill:#0000ff;fill-rule:evenodd;stroke:#000000;stroke-width:0.26458332px;stroke-linecap:butt;stroke-linejoin:miter;stroke-opacity:1"
       d="m 78.743164,112.58397 h 12.829163 v 6.41458 h -6.414583 z"
       id="path201"
       inkscape:connector-curvature="0" />
    <path
       style="fill:none;fill-rule:evenodd;stroke:#000000;stroke-width:0.26458332px;stroke-linecap:butt;stroke-linejoin:miter;stroke-opacity:1"
       d="m 72.162711,33.204917 6.681968,5.88028 h 6.414582 v -6.414585 z"
       id="path207"
       inkscape:connector-curvature="0" />
    <path
       style="fill:none;fill-rule:evenodd;stroke:#000000;stroke-width:0.26458332px;stroke-linecap:butt;stroke-linejoin:miter;stroke-opacity:1"
       d="m 72.430099,26.256027 -6.414582,6.414585 v -12.82917 h 6.414582 l 6.41458,6.414585 z"
       id="path209"
       inkscape:connector-curvature="0" />
    <path
       style="fill:none;fill-rule:evenodd;stroke:#000000;stroke-width:0.26458332px;stroke-linecap:butt;stroke-linejoin:miter;stroke-opacity:1"
       d="m 72.162711,33.204917 -6.147194,5.88028 h 12.829162 z"
       id="path211"
       inkscape:connector-curvature="0" />
    <rect
       style="fill:#ff0000;fill-opacity:1;stroke:#ff0000;stroke-width:0.19999999;stroke-linecap:round;stroke-linejoin:round;stroke-miterlimit:4;stroke-dasharray:none;stroke-opacity:1"
       id="rect4636-6-1-45-30-0"
       width="75.83548"
       height="6.4145851"
       x="25.82604"
       y="79.175278"
       rx="0.33072916"
       ry="0.33072919"
       inkscape:transform-center-x="14.33717"
       inkscape:transform-center-y="-5.1203617" />
    <rect
       style="fill:#ff0000;fill-opacity:1;stroke:#ff0000;stroke-width:0.2;stroke-linecap:round;stroke-linejoin:round;stroke-miterlimit:4;stroke-dasharray:none;stroke-opacity:1"
       id="rect4636-6-1-45-30-9"
       width="79.577255"
       height="6.4145851"
       x="26.093311"
       y="119.13208"
       rx="0.33072916"
       ry="0.33072919"
       inkscape:transform-center-x="15.044575"
       inkscape:transform-center-y="-5.1203617" />
    <path
       style="fill:none;fill-rule:evenodd;stroke:#000000;stroke-width:0.26458332px;stroke-linecap:butt;stroke-linejoin:miter;stroke-opacity:1"
       d="m 78.844679,26.256027 6.414582,6.414585"
       id="path234"
       inkscape:connector-curvature="0" />
    <path
       style="fill:#0000ff;fill-rule:evenodd;stroke:#000000;stroke-width:0.26458332px;stroke-linecap:butt;stroke-linejoin:miter;stroke-opacity:1"
       d="M 78.641754,85.857018 91.470691,99.220495 91.73796,85.857018 Z"
       id="path236"
       inkscape:connector-curvature="0" />
    <path
       style="fill:#0000ff;fill-rule:evenodd;stroke:#000000;stroke-width:0.26458332px;stroke-linecap:butt;stroke-linejoin:miter;stroke-opacity:1"
       d="m 58.79924,92.137966 -6.013565,0.133633 0.13364,6.28083 z"
       id="path238"
       inkscape:connector-curvature="0"
       sodipodi:nodetypes="cccc" />
    <g
       id="g57">
      <rect
         ry="0.33072916"
         rx="0.33072916"
         y="127.85565"
         x="47.341522"
         height="7.5595236"
         width="35.340775"
         id="rect240"
         style="fill:#ffffff;fill-opacity:1;stroke:#ff0000;stroke-width:0.2;stroke-linecap:round;stroke-linejoin:round;stroke-miterlimit:4;stroke-dasharray:none;stroke-opacity:1" />
      <text
         id="text5487"
         y="132.94292"
         x="48.425938"
         style="font-style:normal;font-weight:normal;font-size:4.23333311px;line-height:125%;font-family:Sans;letter-spacing:0px;word-spacing:0px;fill:#000000;fill-opacity:1;stroke:none;stroke-width:0.26458332px;stroke-linecap:butt;stroke-linejoin:miter;stroke-opacity:1"
         xml:space="preserve"><tspan
           style="stroke-width:0.26458332px"
           y="132.94292"
           x="48.425938"
           id="tspan5485"
           sodipodi:role="line">rot: Hindernisse</tspan></text>
    </g>
  </g>
</svg>
